<svg width="24" height="24" viewBox="0 0 24 24" fill="none" xmlns="http://www.w3.org/2000/svg">
<path d="M4.00049 19.5C4.00049 18.8369 4.26388 18.2011 4.73272 17.7322C5.20156 17.2634 5.83745 17 6.50049 17H20.0005" stroke="#0F181D" stroke-width="2" stroke-linecap="round" stroke-linejoin="round"/>
<path d="M6.50049 1.99998H20.0005V22H6.50049C5.83745 22 5.20156 21.7366 4.73272 21.2678C4.26388 20.7989 4.00049 20.163 4.00049 19.5V4.49999C4.00049 3.83694 4.26388 3.20106 4.73272 2.73222C5.20156 2.26338 5.83745 1.99998 6.50049 1.99998V1.99998Z" stroke="#0F181D" stroke-width="2" stroke-linecap="round" stroke-linejoin="round"/>
</svg>
