<svg width="24" height="24" viewBox="0 0 24 24" fill="none" xmlns="http://www.w3.org/2000/svg">
<path d="M18.9995 21L11.9995 16L4.99951 21V5C4.99951 4.46957 5.21023 3.96086 5.5853 3.58579C5.96037 3.21071 6.46908 3 6.99951 3H16.9995C17.5299 3 18.0387 3.21071 18.4137 3.58579C18.7888 3.96086 18.9995 4.46957 18.9995 5V21Z" stroke="#0F181D" stroke-width="2" stroke-linecap="round" stroke-linejoin="round"/>
</svg>
