<svg width="24" height="24" viewBox="0 0 24 24" fill="none" xmlns="http://www.w3.org/2000/svg">
<path d="M19.9995 7.00002H3.99951C2.89494 7.00002 1.99951 7.89545 1.99951 9.00002V19C1.99951 20.1046 2.89494 21 3.99951 21H19.9995C21.1041 21 21.9995 20.1046 21.9995 19V9.00002C21.9995 7.89545 21.1041 7.00002 19.9995 7.00002Z" stroke="#0F181D" stroke-width="2" stroke-linecap="round" stroke-linejoin="round"/>
<path d="M15.9995 21V5C15.9995 4.46957 15.7888 3.96086 15.4137 3.58579C15.0387 3.21071 14.5299 3 13.9995 3H9.99951C9.46908 3 8.96037 3.21071 8.5853 3.58579C8.21023 3.96086 7.99951 4.46957 7.99951 5V21" stroke="#0F181D" stroke-width="2" stroke-linecap="round" stroke-linejoin="round"/>
</svg>
