<svg width="24" height="24" viewBox="0 0 24 24" fill="none" xmlns="http://www.w3.org/2000/svg">
<path d="M10.9995 3.99999H3.99951C3.46908 3.99999 2.96037 4.21071 2.5853 4.58578C2.21023 4.96085 1.99951 5.46956 1.99951 5.99999V20C1.99951 20.5304 2.21023 21.0391 2.5853 21.4142C2.96037 21.7893 3.46908 22 3.99951 22H17.9995C18.5299 22 19.0387 21.7893 19.4137 21.4142C19.7888 21.0391 19.9995 20.5304 19.9995 20V13" stroke="#0F181D" stroke-width="2" stroke-linecap="round" stroke-linejoin="round"/>
<path d="M18.4995 2.5C18.8973 2.10217 19.4369 1.87868 19.9995 1.87868C20.5621 1.87868 21.1017 2.10217 21.4995 2.5C21.8973 2.89782 22.1208 3.43739 22.1208 4C22.1208 4.56261 21.8973 5.10217 21.4995 5.5L11.9995 15L7.99951 16L8.99951 12L18.4995 2.5Z" stroke="#0F181D" stroke-width="2" stroke-linecap="round" stroke-linejoin="round"/>
</svg>
