<svg width="24" height="24" viewBox="0 0 24 24" fill="none" xmlns="http://www.w3.org/2000/svg">
<path d="M11.9995 22C17.5224 22 21.9995 17.5228 21.9995 12C21.9995 6.47714 17.5224 1.99998 11.9995 1.99998C6.47667 1.99998 1.99951 6.47714 1.99951 12C1.99951 17.5228 6.47667 22 11.9995 22Z" stroke="#0F181D" stroke-width="2" stroke-linecap="round" stroke-linejoin="round"/>
<path d="M15.9995 16C15.9995 16 14.4995 14 11.9995 14C9.49951 14 7.99951 16 7.99951 16" stroke="#0F181D" stroke-width="2" stroke-linecap="round" stroke-linejoin="round"/>
<path d="M9 9H9.00833" stroke="#0F181D" stroke-width="2" stroke-linecap="round" stroke-linejoin="round"/>
<path d="M15 9H15.0083" stroke="#0F181D" stroke-width="2" stroke-linecap="round" stroke-linejoin="round"/>
</svg>
