<svg width="24" height="24" viewBox="0 0 24 24" fill="none" xmlns="http://www.w3.org/2000/svg">
<path d="M1.2002 6.24002V21.6L8.07292 17.76L15.9275 21.6L22.8002 17.76V2.40002L15.9275 6.24002L8.07292 2.40002L1.2002 6.24002Z" stroke="#0F181D" stroke-width="2" stroke-linecap="round" stroke-linejoin="round"/>
<path d="M7.99951 4.39995V17.9999" stroke="#0F181D" stroke-width="2" stroke-linecap="round" stroke-linejoin="round"/>
<path d="M16.0005 6V19.6" stroke="#0F181D" stroke-width="2" stroke-linecap="round" stroke-linejoin="round"/>
</svg>
