<svg width="24" height="24" viewBox="0 0 24 24" fill="none" xmlns="http://www.w3.org/2000/svg">
<path d="M11.9995 22C17.5224 22 21.9995 17.5229 21.9995 12C21.9995 6.47718 17.5224 2.00003 11.9995 2.00003C6.47667 2.00003 1.99951 6.47718 1.99951 12C1.99951 17.5229 6.47667 22 11.9995 22Z" stroke="#0F181D" stroke-width="2" stroke-linecap="round" stroke-linejoin="round"/>
<path d="M7.99951 12H15.9995" stroke="#0F181D" stroke-width="2" stroke-linecap="round" stroke-linejoin="round"/>
</svg>
