<svg width="24" height="24" viewBox="0 0 24 24" fill="none" xmlns="http://www.w3.org/2000/svg">
<ellipse cx="12" cy="3" rx="3" ry="3" fill="#0F181D"/>
<ellipse cx="12" cy="12" rx="3" ry="3" fill="#0F181D"/>
<ellipse cx="12" cy="21" rx="3" ry="3" fill="#0F181D"/>
</svg>
