<svg width="24" height="24" viewBox="0 0 24 24" fill="none" xmlns="http://www.w3.org/2000/svg">
<path d="M21.9994 16.9201V19.9201C22.0006 20.1986 21.9435 20.4742 21.832 20.7294C21.7204 20.9846 21.5567 21.2136 21.3515 21.4019C21.1463 21.5902 20.904 21.7335 20.6402 21.8228C20.3764 21.912 20.0968 21.9451 19.8194 21.9201C16.7423 21.5857 13.7864 20.5342 11.1894 18.8501C8.77327 17.3147 6.72478 15.2662 5.18945 12.8501C3.49942 10.2413 2.44769 7.27106 2.11944 4.18007C2.09446 3.90353 2.12732 3.62483 2.21595 3.36169C2.30457 3.09855 2.44702 2.85676 2.63421 2.65169C2.82141 2.44662 3.04925 2.28278 3.30324 2.17059C3.55722 2.0584 3.83179 2.00033 4.10945 2.00007H7.10945C7.59475 1.99529 8.06524 2.16714 8.43321 2.4836C8.80118 2.80005 9.04152 3.23951 9.10944 3.72007C9.23607 4.68013 9.47089 5.62279 9.80945 6.53007C9.94399 6.88799 9.97311 7.27698 9.89335 7.65094C9.8136 8.02491 9.62831 8.36818 9.35944 8.64006L8.08945 9.91006C9.513 12.4136 11.5859 14.4865 14.0894 15.9101L15.3594 14.6401C15.6313 14.3712 15.9746 14.1859 16.3486 14.1062C16.7225 14.0264 17.1115 14.0555 17.4694 14.1901C18.3767 14.5286 19.3194 14.7634 20.2794 14.8901C20.7652 14.9586 21.2088 15.2033 21.526 15.5776C21.8431 15.9518 22.0116 16.4296 21.9994 16.9201Z" stroke="#0F181D" stroke-width="2" stroke-linecap="round" stroke-linejoin="round"/>
</svg>
