<svg width="24" height="24" viewBox="0 0 24 24" fill="none" xmlns="http://www.w3.org/2000/svg">
<path d="M22.7998 3.60007V9.60007H16.7998" stroke="#0F181D" stroke-width="2" stroke-linecap="round" stroke-linejoin="round"/>
<path d="M1.2002 20.3999V14.3999H7.20019" stroke="#0F181D" stroke-width="2" stroke-linecap="round" stroke-linejoin="round"/>
<path d="M3.50978 9.00005C4.01695 7.56683 4.87891 6.28545 6.01525 5.27546C7.15158 4.26548 8.52525 3.55981 10.0081 3.2243C11.4909 2.8888 13.0345 2.93439 14.495 3.35682C15.9554 3.77925 17.285 4.56476 18.3598 5.64004L22.1998 9.60007M1.7998 14.4001L5.63978 18.36C6.71453 19.4353 8.04415 20.2208 9.50459 20.6433C10.965 21.0657 12.5087 21.1113 13.9915 20.7758C15.4743 20.4403 16.848 19.7346 17.9843 18.7246C19.1206 17.7146 19.9826 16.4333 20.4898 15" stroke="#0F181D" stroke-width="2" stroke-linecap="round" stroke-linejoin="round"/>
</svg>
