<svg width="24" height="24" viewBox="0 0 24 24" fill="none" xmlns="http://www.w3.org/2000/svg">
<path d="M11.9995 22C17.5224 22 21.9995 17.5228 21.9995 12C21.9995 6.47712 17.5224 1.99997 11.9995 1.99997C6.47667 1.99997 1.99951 6.47712 1.99951 12C1.99951 17.5228 6.47667 22 11.9995 22Z" stroke="#0F181D" stroke-width="2" stroke-linecap="round" stroke-linejoin="round"/>
<path d="M4.92969 4.93008L19.0697 19.0701" stroke="#0F181D" stroke-width="2" stroke-linecap="round" stroke-linejoin="round"/>
</svg>
