<svg width="24" height="24" viewBox="0 0 24 24" fill="none" xmlns="http://www.w3.org/2000/svg">
<path d="M6.99951 21.9999H3.99951C3.46908 21.9999 2.96037 21.7892 2.5853 21.4141C2.21023 21.0391 1.99951 20.5304 1.99951 19.9999V12.9999C1.99951 12.4695 2.21023 11.9608 2.5853 11.5857C2.96037 11.2107 3.46908 10.9999 3.99951 10.9999H6.99951M13.9995 8.99994V4.99994C13.9995 4.20429 13.6834 3.44123 13.1208 2.87862C12.5582 2.31601 11.7952 1.99994 10.9995 1.99994L6.99951 10.9999V21.9999H18.2795C18.7618 22.0054 19.2299 21.8363 19.5974 21.5239C19.9649 21.2115 20.2072 20.7768 20.2795 20.2999L21.6595 11.2999C21.703 11.0133 21.6837 10.7206 21.6029 10.4422C21.522 10.1638 21.3816 9.90623 21.1914 9.68745C21.0011 9.46867 20.7656 9.29387 20.5011 9.17516C20.2366 9.05644 19.9494 8.99665 19.6595 8.99994H13.9995Z" stroke="#0F181D" stroke-width="2" stroke-linecap="round" stroke-linejoin="round"/>
</svg>
