<svg width="24" height="24" viewBox="0 0 24 24" fill="none" xmlns="http://www.w3.org/2000/svg">
<path d="M15.6002 21.6001V19.6001C15.6002 18.5392 15.1956 17.5218 14.4755 16.7717C13.7553 16.0215 12.7786 15.6001 11.7602 15.6001H5.0402C4.02176 15.6001 3.04505 16.0215 2.32491 16.7717C1.60477 17.5218 1.2002 18.5392 1.2002 19.6001V21.6001" stroke="#0F181D" stroke-width="2" stroke-linecap="round" stroke-linejoin="round"/>
<path d="M8.5 11C10.7091 11 12.5 9.20914 12.5 7C12.5 4.79086 10.7091 3 8.5 3C6.29086 3 4.5 4.79086 4.5 7C4.5 9.20914 6.29086 11 8.5 11Z" stroke="#0F181D" stroke-width="2" stroke-linecap="round" stroke-linejoin="round"/>
<path d="M21.5998 10.8H16.7998" stroke="#0F181D" stroke-width="2" stroke-linecap="round" stroke-linejoin="round"/>
</svg>
