<svg width="24" height="24" viewBox="0 0 24 24" fill="none" xmlns="http://www.w3.org/2000/svg">
<path d="M7.60714 7.66071C8.82143 6.44643 10.2857 5.83929 12 5.83929C13.7143 5.83929 15.1607 6.44643 16.3393 7.66071C17.5536 8.83929 18.1607 10.2857 18.1607 12C18.1607 13.7143 17.5536 15.1786 16.3393 16.3929C15.1607 17.5714 13.7143 18.1607 12 18.1607C10.2857 18.1607 8.82143 17.5714 7.60714 16.3929C6.42857 15.1786 5.83929 13.7143 5.83929 12C5.83929 10.2857 6.42857 8.83929 7.60714 7.66071ZM9.16072 14.8393C9.94643 15.625 10.8929 16.0179 12 16.0179C13.1071 16.0179 14.0536 15.625 14.8393 14.8393C15.625 14.0536 16.0179 13.1071 16.0179 12C16.0179 10.8929 15.625 9.94643 14.8393 9.16072C14.0536 8.375 13.1071 7.98214 12 7.98214C10.8929 7.98214 9.94643 8.375 9.16072 9.16072C8.375 9.94643 7.98214 10.8929 7.98214 12C7.98214 13.1071 8.375 14.0536 9.16072 14.8393ZM19.3929 4.60714C19.6786 4.85714 19.8214 5.17857 19.8214 5.57143C19.8214 5.96429 19.6786 6.30357 19.3929 6.58929C19.1429 6.875 18.8214 7.01786 18.4286 7.01786C18.0357 7.01786 17.6964 6.875 17.4107 6.58929C17.125 6.30357 16.9821 5.96429 16.9821 5.57143C16.9821 5.17857 17.125 4.85714 17.4107 4.60714C17.6964 4.32143 18.0357 4.17857 18.4286 4.17857C18.8214 4.17857 19.1429 4.32143 19.3929 4.60714ZM23.9464 7.07143C23.9821 8.03572 24 9.67857 24 12C24 14.3214 23.9821 15.9643 23.9464 16.9286C23.8393 19.1071 23.1786 20.8036 21.9643 22.0179C20.7857 23.1964 19.1071 23.8214 16.9286 23.8929C15.9643 23.9643 14.3214 24 12 24C9.67857 24 8.03572 23.9643 7.07143 23.8929C4.89286 23.7857 3.21429 23.1429 2.03571 21.9643C1.57143 21.5357 1.19643 21.0357 0.910714 20.4643C0.625 19.8929 0.410714 19.3393 0.267857 18.8036C0.160714 18.2679 0.107143 17.6429 0.107143 16.9286C0.0357143 15.9643 0 14.3214 0 12C0 9.67857 0.0357143 8.01786 0.107143 7.01786C0.214286 4.875 0.857143 3.21429 2.03571 2.03571C3.21429 0.821429 4.89286 0.160714 7.07143 0.0535714C8.03572 0.0178571 9.67857 0 12 0C14.3214 0 15.9643 0.0178571 16.9286 0.0535714C19.1071 0.160714 20.7857 0.821429 21.9643 2.03571C23.1786 3.21429 23.8393 4.89286 23.9464 7.07143ZM21.375 19.0714C21.4821 18.7857 21.5714 18.4286 21.6429 18C21.7143 17.5357 21.7679 17 21.8036 16.3929C21.8393 15.75 21.8571 15.2321 21.8571 14.8393C21.8571 14.4464 21.8571 13.8929 21.8571 13.1786C21.8571 12.4643 21.8571 12.0714 21.8571 12C21.8571 11.8929 21.8571 11.5 21.8571 10.8214C21.8571 10.1071 21.8571 9.55357 21.8571 9.16072C21.8571 8.76786 21.8393 8.26786 21.8036 7.66071C21.7679 7.01786 21.7143 6.48214 21.6429 6.05357C21.5714 5.58929 21.4821 5.21429 21.375 4.92857C20.9464 3.82143 20.1786 3.05357 19.0714 2.625C18.7857 2.51786 18.4107 2.42857 17.9464 2.35714C17.5179 2.28571 16.9821 2.23214 16.3393 2.19643C15.7321 2.16071 15.2321 2.14286 14.8393 2.14286C14.4821 2.14286 13.9286 2.14286 13.1786 2.14286C12.4643 2.14286 12.0714 2.14286 12 2.14286C11.9286 2.14286 11.5357 2.14286 10.8214 2.14286C10.1071 2.14286 9.55357 2.14286 9.16072 2.14286C8.76786 2.14286 8.25 2.16071 7.60714 2.19643C7 2.23214 6.46429 2.28571 6 2.35714C5.57143 2.42857 5.21429 2.51786 4.92857 2.625C3.82143 3.05357 3.05357 3.82143 2.625 4.92857C2.51786 5.21429 2.42857 5.58929 2.35714 6.05357C2.28571 6.48214 2.23214 7.01786 2.19643 7.66071C2.16071 8.26786 2.14286 8.76786 2.14286 9.16072C2.14286 9.51786 2.14286 10.0714 2.14286 10.8214C2.14286 11.5357 2.14286 11.9286 2.14286 12C2.14286 12.1429 2.14286 12.4821 2.14286 13.0179C2.14286 13.5179 2.14286 13.9464 2.14286 14.3036C2.14286 14.625 2.14286 15.0536 2.14286 15.5893C2.17857 16.125 2.21429 16.5893 2.25 16.9821C2.28571 17.3393 2.33929 17.7143 2.41071 18.1071C2.48214 18.5 2.55357 18.8214 2.625 19.0714C3.08929 20.1786 3.85714 20.9464 4.92857 21.375C5.21429 21.4821 5.57143 21.5714 6 21.6429C6.46429 21.7143 7 21.7679 7.60714 21.8036C8.25 21.8393 8.75 21.8571 9.10714 21.8571C9.5 21.8571 10.0536 21.8571 10.7679 21.8571C11.5179 21.8571 11.9286 21.8571 12 21.8571C12.1071 21.8571 12.5 21.8571 13.1786 21.8571C13.8929 21.8571 14.4464 21.8571 14.8393 21.8571C15.2321 21.8571 15.7321 21.8393 16.3393 21.8036C16.9821 21.7679 17.5179 21.7143 17.9464 21.6429C18.4107 21.5714 18.7857 21.4821 19.0714 21.375C20.1786 20.9107 20.9464 20.1429 21.375 19.0714Z" fill="#0F181D"/>
</svg>
