<svg width="25" height="24" viewBox="0 0 25 24" fill="none" xmlns="http://www.w3.org/2000/svg">
<path d="M2.14014 6C2.14014 5.44772 2.58785 5 3.14014 5H22.1401C22.6924 5 23.1401 5.44772 23.1401 6V8C23.1401 8.31476 22.9919 8.61115 22.7401 8.8V8.8C20.6068 10.4 20.6068 13.6 22.7401 15.2V15.2C22.9919 15.3889 23.1401 15.6852 23.1401 16V18C23.1401 18.5523 22.6924 19 22.1401 19H3.14014C2.58785 19 2.14014 18.5523 2.14014 18V16C2.14014 15.6852 2.28833 15.3889 2.54014 15.2V15.2C4.67347 13.6 4.67347 10.4 2.54014 8.8V8.8C2.28833 8.61115 2.14014 8.31476 2.14014 8V6Z" stroke="#0F181D" stroke-width="2" stroke-linecap="round" stroke-linejoin="round"/>
<path d="M17.3066 6.16675L17.3066 17.8334" stroke="#0F181D" stroke-width="2" stroke-linecap="round" stroke-dasharray="1 3"/>
</svg>
