<svg width="24" height="24" viewBox="0 0 24 24" fill="none" xmlns="http://www.w3.org/2000/svg">
<path d="M19.7778 2H4.22222C2.99492 2 2 2.99492 2 4.22222V19.7778C2 21.0051 2.99492 22 4.22222 22H19.7778C21.0051 22 22 21.0051 22 19.7778V4.22222C22 2.99492 21.0051 2 19.7778 2Z" stroke="#0F181D" stroke-width="2" stroke-linecap="round" stroke-linejoin="round"/>
<path d="M9.3335 17.3334V11.6445M9.3335 11.6445V6.66675H13.5113C14.8859 6.66675 16.0002 7.78106 16.0002 9.15564V9.15564C16.0002 10.5302 14.8858 11.6445 13.5113 11.6445H9.3335Z" stroke="#0F181D" stroke-width="2" stroke-linecap="round" stroke-linejoin="round"/>
</svg>
