<svg width="24" height="24" viewBox="0 0 24 24" fill="none" xmlns="http://www.w3.org/2000/svg">
<path d="M19.5556 8.11111V6.16176C19.5556 5.63133 19.3448 5.12262 18.9698 4.74755L17.8889 3.66667L16.808 2.58579C16.4329 2.21071 15.9242 2 15.3938 2H6C4.89543 2 4 2.89543 4 4V20C4 21.1046 4.89543 22 6 22H17.5556C18.6601 22 19.5556 21.1046 19.5556 20V14.2222" stroke="#0F181D" stroke-width="2" stroke-linecap="round" stroke-linejoin="round"/>
<path d="M15.1111 2V6.44444H19.5555" stroke="#0F181D" stroke-width="2" stroke-linecap="round" stroke-linejoin="round"/>
<path d="M8.44434 6.44434H10.6666" stroke="#0F181D" stroke-width="2" stroke-linecap="round" stroke-linejoin="round"/>
<path d="M8.44434 13.1111H9.55545" stroke="#0F181D" stroke-width="2" stroke-linecap="round" stroke-linejoin="round"/>
<path d="M8.44434 9.77783H12.8888" stroke="#0F181D" stroke-width="2" stroke-linecap="round" stroke-linejoin="round"/>
<path d="M11.8862 15.9221C11.9778 15.5861 12.1554 15.2797 12.4017 15.0335L13.1238 14.3114L17.7494 9.68577C18.5296 8.90555 19.7946 8.90555 20.5748 9.68577V9.68577C21.3551 10.466 21.3551 11.731 20.5748 12.5112L15.9492 17.1368L15.2272 17.8589C14.9809 18.1052 14.6746 18.2829 14.3385 18.3744L11.8119 19.0625C11.4388 19.1641 11.0965 18.8218 11.1981 18.4487L11.8862 15.9221Z" stroke="#0F181D" stroke-width="2" stroke-linecap="round" stroke-linejoin="round"/>
</svg>
